module github.com/fristonio/bootstrap-kit

go 1.18

// replace github.com/fristonio/kit/cluster-agent => /home/fristonio/go/src/github.com/fristonio/kit/cluster-agent

require (
	github.com/fristonio/kit/cluster-agent v0.0.0-00010101000000-000000000000
	k8s.io/api v0.24.3
)

require (
	github.com/fluxcd/pkg/apis/meta v0.14.2 // indirect
	github.com/go-logr/logr v1.2.3 // indirect
	github.com/gogo/protobuf v1.3.2 // indirect
	github.com/google/gofuzz v1.2.0 // indirect
	github.com/json-iterator/go v1.1.12 // indirect
	github.com/modern-go/concurrent v0.0.0-20180306012644-bacd9c7ef1dd // indirect
	github.com/modern-go/reflect2 v1.0.2 // indirect
	golang.org/x/net v0.0.0-20220708220712-1185a9018129 // indirect
	golang.org/x/text v0.3.7 // indirect
	gopkg.in/inf.v0 v0.9.1 // indirect
	gopkg.in/yaml.v2 v2.4.0 // indirect
	k8s.io/apimachinery v0.24.3 // indirect
	k8s.io/klog/v2 v2.70.1 // indirect
	k8s.io/utils v0.0.0-20220210201930-3a6ce19ff2f9 // indirect
	sigs.k8s.io/controller-runtime v0.12.3 // indirect
	sigs.k8s.io/json v0.0.0-20220525155127-227cbc7cc124 // indirect
	sigs.k8s.io/structured-merge-diff/v4 v4.2.1 // indirect
)
